#define desk_width  34
#define desk_height 34
static unsigned char desk_bits[] = {
 0x00,0x00,0x00,0x00,0xfc,0x00,0x00,0x00,0x00,0xfc,0x00,0xe0,
 0x1f,0x00,0xfc,0x00,0xfc,0xff,0x00,0xfc,0x00,0xff,0xff,0x03,
 0xfc,0x80,0xff,0xff,0x07,0xfc,0xc0,0xff,0xff,0x0f,0xfc,0xe0,
 0xff,0xff,0x1f,0xfc,0xf0,0xff,0xff,0x3f,0xfc,0xf0,0x3f,0xf0,
 0x3f,0xfc,0xf8,0x0f,0xc0,0x7f,0xfc,0xf8,0x07,0x80,0x7f,0xfc,
 0xf8,0xc3,0x0f,0x7f,0xfc,0xfc,0xe3,0x1f,0xff,0xfc,0xfc,0x71,
 0x38,0xfe,0xfc,0xfc,0x31,0x30,0xfe,0xfc,0xfc,0x31,0x30,0xfe,
 0xfc,0xfc,0x31,0x30,0xfe,0xfc,0xfc,0x31,0x30,0xfe,0xfc,0xfc,
 0x71,0x38,0xfe,0xfc,0xfc,0xe3,0x1f,0xff,0xfc,0xf8,0xc3,0x0f,
 0x7f,0xfc,0xf8,0x07,0x80,0x7f,0xfc,0xf8,0x0f,0xc0,0x7f,0xfc,
 0xf0,0x3f,0xf0,0x3f,0xfc,0xf0,0xff,0xff,0x3f,0xfc,0xe0,0xff,
 0xff,0x1f,0xfc,0xc0,0xff,0xff,0x0f,0xfc,0x80,0xff,0xff,0x07,
 0xfc,0x00,0xff,0xff,0x03,0xfc,0x00,0xfc,0xff,0x00,0xfc,0x00,
 0xe0,0x1f,0x00,0xfc,0x00,0x00,0x00,0x00,0xfc,0x00,0x00,0x00,
 0x00,0xfc};

