#define max_toggled_hover_width  34
#define max_toggled_hover_height 34
static unsigned char max_toggled_hover_bits[] = {
 0x00,0x00,0x00,0x00,0xfc,0x00,0x00,0x00,0x00,0xfc,0x00,0xe0,
 0x1f,0x00,0xfc,0x00,0xfc,0xff,0x00,0xfc,0x00,0xff,0xff,0x03,
 0xfc,0x80,0xff,0xff,0x07,0xfc,0xc0,0xff,0xff,0x0f,0xfc,0xe0,
 0xff,0xff,0x1f,0xfc,0xf0,0xff,0xff,0x3f,0xfc,0xf0,0x7f,0x00,
 0x3f,0xfc,0xf8,0x3f,0x00,0x7e,0xfc,0xf8,0x3f,0x7f,0x7e,0xfc,
 0xf8,0x3f,0x7f,0x7e,0xfc,0xfc,0xff,0x7f,0xfe,0xfc,0xfc,0xff,
 0x7f,0xfe,0xfc,0xfc,0x03,0x78,0xfe,0xfc,0xfc,0x01,0x70,0xfe,
 0xfc,0xfc,0xf9,0x33,0xfe,0xfc,0xfc,0xf9,0x33,0xff,0xfc,0xfc,
 0xf9,0xf3,0xff,0xfc,0xfc,0xf9,0xf3,0xff,0xfc,0xf8,0xf9,0xf3,
 0x7f,0xfc,0xf8,0xf9,0xf3,0x7f,0xfc,0xf8,0x01,0xf0,0x7f,0xfc,
 0xf0,0x03,0xf8,0x3f,0xfc,0xf0,0xff,0xff,0x3f,0xfc,0xe0,0xff,
 0xff,0x1f,0xfc,0xc0,0xff,0xff,0x0f,0xfc,0x80,0xff,0xff,0x07,
 0xfc,0x00,0xff,0xff,0x03,0xfc,0x00,0xfc,0xff,0x00,0xfc,0x00,
 0xe0,0x1f,0x00,0xfc,0x00,0x00,0x00,0x00,0xfc,0x00,0x00,0x00,
 0x00,0xfc};

