#define shade_hover_width  34
#define shade_hover_height 34
static unsigned char shade_hover_bits[] = {
 0x00,0x00,0x00,0x00,0xfc,0x00,0x00,0x00,0x00,0xfc,0x00,0xe0,
 0x1f,0x00,0xfc,0x00,0xfc,0xff,0x00,0xfc,0x00,0xff,0xff,0x03,
 0xfc,0x80,0xff,0xff,0x07,0xfc,0xc0,0xff,0xff,0x0f,0xfc,0xe0,
 0xff,0xff,0x1f,0xfc,0xf0,0xff,0xff,0x3f,0xfc,0xf0,0xff,0xff,
 0x3f,0xfc,0xf8,0x03,0x00,0x7f,0xfc,0xf8,0x03,0x00,0x7f,0xfc,
 0xf8,0xff,0xff,0x7f,0xfc,0xfc,0xff,0xff,0xff,0xfc,0xfc,0xff,
 0xfc,0xff,0xfc,0xfc,0x7f,0xf8,0xff,0xfc,0xfc,0x3f,0xf0,0xff,
 0xfc,0xfc,0x1f,0xe3,0xff,0xfc,0xfc,0x8f,0xc7,0xff,0xfc,0xfc,
 0xc7,0x8f,0xff,0xfc,0xfc,0xe3,0x1f,0xff,0xfc,0xf8,0xf3,0x3f,
 0x7f,0xfc,0xf8,0xff,0xff,0x7f,0xfc,0xf8,0xff,0xff,0x7f,0xfc,
 0xf0,0xff,0xff,0x3f,0xfc,0xf0,0xff,0xff,0x3f,0xfc,0xe0,0xff,
 0xff,0x1f,0xfc,0xc0,0xff,0xff,0x0f,0xfc,0x80,0xff,0xff,0x07,
 0xfc,0x00,0xff,0xff,0x03,0xfc,0x00,0xfc,0xff,0x00,0xfc,0x00,
 0xe0,0x1f,0x00,0xfc,0x00,0x00,0x00,0x00,0xfc,0x00,0x00,0x00,
 0x00,0xfc};

